…
**I ran descriptive statistics. I calculated means and SD per group and
word, per group, mean VOT per group, and mean F1 and F2 for all the
words that had /u/ as the first vowel per group (relevant for my
hypothesis)**

``` r
# Give some descriptive summaries of your data 
# Display your descriptives in a table
df %>%
  group_by(group, word) %>%
  summarise(mean_f1 = mean(f1), sd_f1 = sd(f1), mean_f2 = mean(f2), sd_f2 = sd(f2), mean_vot = mean(vot), sd_vot = sd(vot), n = n())
```

    ## # A tibble: 30 x 9
    ## # Groups:   group [2]
    ##    group word  mean_f1 sd_f1 mean_f2 sd_f2 mean_vot sd_vot     n
    ##    <chr> <chr>   <dbl> <dbl>   <dbl> <dbl>    <dbl>  <dbl> <int>
    ##  1 bi    kaka     766. 144.    1602. 122.      25.2   3.10     9
    ##  2 bi    keke     566. 130.    2290. 116.      23.1  10.1      9
    ##  3 bi    kiki     421. 159.    2675.  45.7     32.0  12.1      9
    ##  4 bi    koko     575.  83.5    989. 105.      29.0   5.00     9
    ##  5 bi    kuku     394.  97.4   1067. 345.      45.7  46.1      9
    ##  6 bi    paka     734. 177.    1600. 181.      14.3   5.77     9
    ##  7 bi    peke     555. 161.    2273. 191.      15.4   4.28     9
    ##  8 bi    piki     535. 486.    2560. 377.      21.5   5.82     9
    ##  9 bi    poko     531.  82.9   1092. 307.      19.2   5.39     9
    ## 10 bi    puku     471.  79.0    945. 312.      25.8   9.84     9
    ## # … with 20 more rows
…
